1583334110833	mozrunner::runner	INFO	Running command: "/Applications/Firefox.app/Contents/MacOS/firefox-bin" "-marionette" "-headless" "-foreground" "-no-remote" "-profile" "/var/folders/g6/4zc9__bn60q112znjr2lp88dwrlxj5/T/rust_mozprofile3jajyk"
*** You are running in headless mode.
1583334111118	addons.webextension.doh-rollout@mozilla.org	WARN	Loading extension 'doh-rollout@mozilla.org': Reading manifest: Invalid extension permission: networkStatus
1583334111314	addons.webextension.screenshots@mozilla.org	WARN	Loading extension 'screenshots@mozilla.org': Reading manifest: Invalid extension permission: mozillaAddons
1583334111314	addons.webextension.screenshots@mozilla.org	WARN	Loading extension 'screenshots@mozilla.org': Reading manifest: Invalid extension permission: telemetry
1583334111315	addons.webextension.screenshots@mozilla.org	WARN	Loading extension 'screenshots@mozilla.org': Reading manifest: Invalid extension permission: resource://pdf.js/
1583334111315	addons.webextension.screenshots@mozilla.org	WARN	Loading extension 'screenshots@mozilla.org': Reading manifest: Invalid extension permission: about:reader*
1583334112804	Marionette	INFO	Listening on port 51517
1583334112873	Marionette	WARN	TLS certificate errors will be ignored for this session
JavaScript error: , line 0: uncaught exception: Received message from non whitelisted origin: https://sports.williamhill-pp3.com
1583334185193	mozrunner::runner	INFO	Running command: "/Applications/Firefox.app/Contents/MacOS/firefox-bin" "-marionette" "-headless" "-foreground" "-no-remote" "-profile" "/var/folders/g6/4zc9__bn60q112znjr2lp88dwrlxj5/T/rust_mozprofileOIlkay"
*** You are running in headless mode.
1583334185489	addons.webextension.doh-rollout@mozilla.org	WARN	Loading extension 'doh-rollout@mozilla.org': Reading manifest: Invalid extension permission: networkStatus
1583334185682	addons.webextension.screenshots@mozilla.org	WARN	Loading extension 'screenshots@mozilla.org': Reading manifest: Invalid extension permission: mozillaAddons
1583334185682	addons.webextension.screenshots@mozilla.org	WARN	Loading extension 'screenshots@mozilla.org': Reading manifest: Invalid extension permission: telemetry
1583334185682	addons.webextension.screenshots@mozilla.org	WARN	Loading extension 'screenshots@mozilla.org': Reading manifest: Invalid extension permission: resource://pdf.js/
1583334185682	addons.webextension.screenshots@mozilla.org	WARN	Loading extension 'screenshots@mozilla.org': Reading manifest: Invalid extension permission: about:reader*
1583334186829	Marionette	INFO	Listening on port 51712
1583334186926	Marionette	WARN	TLS certificate errors will be ignored for this session
JavaScript error: , line 0: uncaught exception: Received message from non whitelisted origin: https://sports.williamhill-pp3.com
1583334273884	mozrunner::runner	INFO	Running command: "/Applications/Firefox.app/Contents/MacOS/firefox-bin" "-marionette" "-headless" "-foreground" "-no-remote" "-profile" "/var/folders/g6/4zc9__bn60q112znjr2lp88dwrlxj5/T/rust_mozprofile7HMT2i"
*** You are running in headless mode.
1583334274187	addons.webextension.doh-rollout@mozilla.org	WARN	Loading extension 'doh-rollout@mozilla.org': Reading manifest: Invalid extension permission: networkStatus
1583334274390	addons.webextension.screenshots@mozilla.org	WARN	Loading extension 'screenshots@mozilla.org': Reading manifest: Invalid extension permission: mozillaAddons
1583334274390	addons.webextension.screenshots@mozilla.org	WARN	Loading extension 'screenshots@mozilla.org': Reading manifest: Invalid extension permission: telemetry
1583334274390	addons.webextension.screenshots@mozilla.org	WARN	Loading extension 'screenshots@mozilla.org': Reading manifest: Invalid extension permission: resource://pdf.js/
1583334274390	addons.webextension.screenshots@mozilla.org	WARN	Loading extension 'screenshots@mozilla.org': Reading manifest: Invalid extension permission: about:reader*
1583334275581	Marionette	INFO	Listening on port 51922
1583334275632	Marionette	WARN	TLS certificate errors will be ignored for this session
JavaScript error: , line 0: uncaught exception: Received message from non whitelisted origin: https://sports.williamhill-pp3.com
1583335066451	mozrunner::runner	INFO	Running command: "/Applications/Firefox.app/Contents/MacOS/firefox-bin" "-marionette" "-headless" "-foreground" "-no-remote" "-profile" "/var/folders/g6/4zc9__bn60q112znjr2lp88dwrlxj5/T/rust_mozprofilevJYMdA"
*** You are running in headless mode.
1583335066738	addons.webextension.doh-rollout@mozilla.org	WARN	Loading extension 'doh-rollout@mozilla.org': Reading manifest: Invalid extension permission: networkStatus
1583335066939	addons.webextension.screenshots@mozilla.org	WARN	Loading extension 'screenshots@mozilla.org': Reading manifest: Invalid extension permission: mozillaAddons
1583335066939	addons.webextension.screenshots@mozilla.org	WARN	Loading extension 'screenshots@mozilla.org': Reading manifest: Invalid extension permission: telemetry
1583335066939	addons.webextension.screenshots@mozilla.org	WARN	Loading extension 'screenshots@mozilla.org': Reading manifest: Invalid extension permission: resource://pdf.js/
1583335066939	addons.webextension.screenshots@mozilla.org	WARN	Loading extension 'screenshots@mozilla.org': Reading manifest: Invalid extension permission: about:reader*
1583335068107	Marionette	INFO	Listening on port 52971
1583335068194	Marionette	WARN	TLS certificate errors will be ignored for this session
JavaScript error: , line 0: uncaught exception: Received message from non whitelisted origin: https://sports.williamhill-pp3.com
JavaScript error: , line 0: uncaught exception: Received message from non whitelisted origin: https://sports.williamhill-pp3.com
1583335101703	mozrunner::runner	INFO	Running command: "/Applications/Firefox.app/Contents/MacOS/firefox-bin" "-marionette" "-headless" "-foreground" "-no-remote" "-profile" "/var/folders/g6/4zc9__bn60q112znjr2lp88dwrlxj5/T/rust_mozprofile3VSup3"
*** You are running in headless mode.
1583335101961	addons.webextension.doh-rollout@mozilla.org	WARN	Loading extension 'doh-rollout@mozilla.org': Reading manifest: Invalid extension permission: networkStatus
1583335102162	addons.webextension.screenshots@mozilla.org	WARN	Loading extension 'screenshots@mozilla.org': Reading manifest: Invalid extension permission: mozillaAddons
1583335102162	addons.webextension.screenshots@mozilla.org	WARN	Loading extension 'screenshots@mozilla.org': Reading manifest: Invalid extension permission: telemetry
1583335102162	addons.webextension.screenshots@mozilla.org	WARN	Loading extension 'screenshots@mozilla.org': Reading manifest: Invalid extension permission: resource://pdf.js/
1583335102162	addons.webextension.screenshots@mozilla.org	WARN	Loading extension 'screenshots@mozilla.org': Reading manifest: Invalid extension permission: about:reader*
1583335103306	Marionette	INFO	Listening on port 53167
1583335103339	Marionette	WARN	TLS certificate errors will be ignored for this session
JavaScript error: , line 0: uncaught exception: Received message from non whitelisted origin: https://sports.williamhill-pp3.com
JavaScript error: , line 0: uncaught exception: Received message from non whitelisted origin: https://sports.williamhill-pp3.com
1583335128463	mozrunner::runner	INFO	Running command: "/Applications/Firefox.app/Contents/MacOS/firefox-bin" "-marionette" "-headless" "-foreground" "-no-remote" "-profile" "/var/folders/g6/4zc9__bn60q112znjr2lp88dwrlxj5/T/rust_mozprofilevT79qr"
*** You are running in headless mode.
1583335128758	addons.webextension.doh-rollout@mozilla.org	WARN	Loading extension 'doh-rollout@mozilla.org': Reading manifest: Invalid extension permission: networkStatus
1583335128957	addons.webextension.screenshots@mozilla.org	WARN	Loading extension 'screenshots@mozilla.org': Reading manifest: Invalid extension permission: mozillaAddons
1583335128957	addons.webextension.screenshots@mozilla.org	WARN	Loading extension 'screenshots@mozilla.org': Reading manifest: Invalid extension permission: telemetry
1583335128957	addons.webextension.screenshots@mozilla.org	WARN	Loading extension 'screenshots@mozilla.org': Reading manifest: Invalid extension permission: resource://pdf.js/
1583335128957	addons.webextension.screenshots@mozilla.org	WARN	Loading extension 'screenshots@mozilla.org': Reading manifest: Invalid extension permission: about:reader*
1583335130131	Marionette	INFO	Listening on port 53337
1583335130208	Marionette	WARN	TLS certificate errors will be ignored for this session
Exiting due to channel error.
Exiting due to channel error.
Exiting due to channel error.
[GFX1-]: Receive IPC close with reason=AbnormalShutdown
Exiting due to channel error.
[GFX1-]: Receive IPC close with reason=AbnormalShutdown
[GFX1-]: Receive IPC close with reason=AbnormalShutdown
Exiting due to channel error.
Exiting due to channel error.
Exiting due to channel error.
[GFX1-]: Receive IPC close with reason=AbnormalShutdown
Exiting due to channel error.
Exiting due to channel error.
Exiting due to channel error.
Exiting due to channel error.
Exiting due to channel error.
[GFX1-]: Receive IPC close with reason=AbnormalShutdown
[GFX1-]: Receive IPC close with reason=AbnormalShutdown
Exiting due to channel error.
Exiting due to channel error.
Exiting due to channel error.
[GFX1-]: Receive IPC close with reason=AbnormalShutdown
Exiting due to channel error.
[GFX1-]: Receive IPC close with reason=AbnormalShutdown
Exiting due to channel error.
Exiting due to channel error.
1583394576696	mozrunner::runner	INFO	Running command: "/Applications/Firefox.app/Contents/MacOS/firefox-bin" "-marionette" "-headless" "-foreground" "-no-remote" "-profile" "/var/folders/g6/4zc9__bn60q112znjr2lp88dwrlxj5/T/rust_mozprofile0fglXP"
*** You are running in headless mode.
1583394576970	addons.webextension.doh-rollout@mozilla.org	WARN	Loading extension 'doh-rollout@mozilla.org': Reading manifest: Invalid extension permission: networkStatus
1583394577168	addons.webextension.screenshots@mozilla.org	WARN	Loading extension 'screenshots@mozilla.org': Reading manifest: Invalid extension permission: mozillaAddons
1583394577168	addons.webextension.screenshots@mozilla.org	WARN	Loading extension 'screenshots@mozilla.org': Reading manifest: Invalid extension permission: telemetry
1583394577168	addons.webextension.screenshots@mozilla.org	WARN	Loading extension 'screenshots@mozilla.org': Reading manifest: Invalid extension permission: resource://pdf.js/
1583394577168	addons.webextension.screenshots@mozilla.org	WARN	Loading extension 'screenshots@mozilla.org': Reading manifest: Invalid extension permission: about:reader*
1583394578976	Marionette	INFO	Listening on port 49854
1583394579046	Marionette	WARN	TLS certificate errors will be ignored for this session
JavaScript warning: https://trans-pp2.staticcache.org/ob/static_versioned/api/sportsbook/latest/js/minified/OB_SportBook_API_PMT.js?v=2, line 1337: unreachable code after return statement
JavaScript error: , line 0: uncaught exception: Received message from non whitelisted origin: https://sports.williamhill-pp2.com
1583398574293	mozrunner::runner	INFO	Running command: "/Applications/Firefox.app/Contents/MacOS/firefox-bin" "-marionette" "-headless" "-foreground" "-no-remote" "-profile" "/var/folders/g6/4zc9__bn60q112znjr2lp88dwrlxj5/T/rust_mozprofile6QvQ05"
*** You are running in headless mode.
1583398574619	addons.webextension.doh-rollout@mozilla.org	WARN	Loading extension 'doh-rollout@mozilla.org': Reading manifest: Invalid extension permission: networkStatus
1583398574814	addons.webextension.screenshots@mozilla.org	WARN	Loading extension 'screenshots@mozilla.org': Reading manifest: Invalid extension permission: mozillaAddons
1583398574814	addons.webextension.screenshots@mozilla.org	WARN	Loading extension 'screenshots@mozilla.org': Reading manifest: Invalid extension permission: telemetry
1583398574814	addons.webextension.screenshots@mozilla.org	WARN	Loading extension 'screenshots@mozilla.org': Reading manifest: Invalid extension permission: resource://pdf.js/
1583398574814	addons.webextension.screenshots@mozilla.org	WARN	Loading extension 'screenshots@mozilla.org': Reading manifest: Invalid extension permission: about:reader*
1583398575991	Marionette	INFO	Listening on port 51270
1583398576028	Marionette	WARN	TLS certificate errors will be ignored for this session
1583398683822	mozrunner::runner	INFO	Running command: "/Applications/Firefox.app/Contents/MacOS/firefox-bin" "-marionette" "-headless" "-foreground" "-no-remote" "-profile" "/var/folders/g6/4zc9__bn60q112znjr2lp88dwrlxj5/T/rust_mozprofileenRzcI"
*** You are running in headless mode.
1583398684081	addons.webextension.doh-rollout@mozilla.org	WARN	Loading extension 'doh-rollout@mozilla.org': Reading manifest: Invalid extension permission: networkStatus
1583398684279	addons.webextension.screenshots@mozilla.org	WARN	Loading extension 'screenshots@mozilla.org': Reading manifest: Invalid extension permission: mozillaAddons
1583398684280	addons.webextension.screenshots@mozilla.org	WARN	Loading extension 'screenshots@mozilla.org': Reading manifest: Invalid extension permission: telemetry
1583398684280	addons.webextension.screenshots@mozilla.org	WARN	Loading extension 'screenshots@mozilla.org': Reading manifest: Invalid extension permission: resource://pdf.js/
1583398684280	addons.webextension.screenshots@mozilla.org	WARN	Loading extension 'screenshots@mozilla.org': Reading manifest: Invalid extension permission: about:reader*
1583398685443	Marionette	INFO	Listening on port 51323
1583398685456	Marionette	WARN	TLS certificate errors will be ignored for this session
1583405101056	mozrunner::runner	INFO	Running command: "/Applications/Firefox.app/Contents/MacOS/firefox-bin" "-marionette" "-headless" "-foreground" "-no-remote" "-profile" "/var/folders/g6/4zc9__bn60q112znjr2lp88dwrlxj5/T/rust_mozprofile071LfD"
*** You are running in headless mode.
1583405101419	addons.webextension.doh-rollout@mozilla.org	WARN	Loading extension 'doh-rollout@mozilla.org': Reading manifest: Invalid extension permission: networkStatus
1583405101621	addons.webextension.screenshots@mozilla.org	WARN	Loading extension 'screenshots@mozilla.org': Reading manifest: Invalid extension permission: mozillaAddons
1583405101621	addons.webextension.screenshots@mozilla.org	WARN	Loading extension 'screenshots@mozilla.org': Reading manifest: Invalid extension permission: telemetry
1583405101621	addons.webextension.screenshots@mozilla.org	WARN	Loading extension 'screenshots@mozilla.org': Reading manifest: Invalid extension permission: resource://pdf.js/
1583405101621	addons.webextension.screenshots@mozilla.org	WARN	Loading extension 'screenshots@mozilla.org': Reading manifest: Invalid extension permission: about:reader*
1583405102882	Marionette	INFO	Listening on port 54074
1583405102898	Marionette	WARN	TLS certificate errors will be ignored for this session
JavaScript warning: https://trans-pp2.staticcache.org/ob/static_versioned/api/sportsbook/latest/js/minified/OB_SportBook_API_PMT.js?v=2, line 1337: unreachable code after return statement
JavaScript warning: https://trans-pp2.staticcache.org/ob/static_versioned/api/sportsbook/latest/js/minified/OB_SportBook_API_PMT.js?v=2, line 1337: unreachable code after return statement
JavaScript error: https://sports-pp2.staticcache.org/myaccount_2.10.0-fix.1/header/sbheader.min.js, line 4: TypeError: a is undefined
JavaScript error: , line 0: uncaught exception: Object
Exiting due to channel error.
Exiting due to channel error.
Exiting due to channel error.
[GFX1-]: Receive IPC close with reason=AbnormalShutdown
[GFX1-]: Receive IPC close with reason=AbnormalShutdown
Exiting due to channel error.
Exiting due to channel error.
Exiting due to channel error.
[GFX1-]: Receive IPC close with reason=AbnormalShutdown
Exiting due to channel error.
Exiting due to channel error.
Exiting due to channel error.
Exiting due to channel error.
Exiting due to channel error.
Exiting due to channel error.
1583499437640	mozrunner::runner	INFO	Running command: "/Applications/Firefox.app/Contents/MacOS/firefox-bin" "-marionette" "-headless" "-foreground" "-no-remote" "-profile" "/var/folders/g6/4zc9__bn60q112znjr2lp88dwrlxj5/T/rust_mozprofiler5gySG"
*** You are running in headless mode.
1583499437978	addons.webextension.doh-rollout@mozilla.org	WARN	Loading extension 'doh-rollout@mozilla.org': Reading manifest: Invalid extension permission: networkStatus
1583499438172	addons.webextension.screenshots@mozilla.org	WARN	Loading extension 'screenshots@mozilla.org': Reading manifest: Invalid extension permission: mozillaAddons
1583499438172	addons.webextension.screenshots@mozilla.org	WARN	Loading extension 'screenshots@mozilla.org': Reading manifest: Invalid extension permission: telemetry
1583499438172	addons.webextension.screenshots@mozilla.org	WARN	Loading extension 'screenshots@mozilla.org': Reading manifest: Invalid extension permission: resource://pdf.js/
1583499438172	addons.webextension.screenshots@mozilla.org	WARN	Loading extension 'screenshots@mozilla.org': Reading manifest: Invalid extension permission: about:reader*
1583499439640	Marionette	INFO	Listening on port 55521
1583499439688	Marionette	WARN	TLS certificate errors will be ignored for this session
JavaScript warning: https://trans-pp2.staticcache.org/ob/static_versioned/api/sportsbook/latest/js/minified/OB_SportBook_API_PMT.js?v=2, line 1337: unreachable code after return statement
JavaScript warning: https://trans-pp2.staticcache.org/ob/static_versioned/api/sportsbook/latest/js/minified/OB_SportBook_API_PMT.js?v=2, line 1337: unreachable code after return statement
JavaScript error: https://sports-pp2.staticcache.org/myaccount_2.10.0-fix.1/header/sbheader.min.js, line 4: TypeError: a is undefined
JavaScript error: , line 0: uncaught exception: Object
1583499729855	mozrunner::runner	INFO	Running command: "/Applications/Firefox.app/Contents/MacOS/firefox-bin" "-marionette" "-headless" "-foreground" "-no-remote" "-profile" "/var/folders/g6/4zc9__bn60q112znjr2lp88dwrlxj5/T/rust_mozprofile20326h"
*** You are running in headless mode.
1583499730198	addons.webextension.doh-rollout@mozilla.org	WARN	Loading extension 'doh-rollout@mozilla.org': Reading manifest: Invalid extension permission: networkStatus
1583499730400	addons.webextension.screenshots@mozilla.org	WARN	Loading extension 'screenshots@mozilla.org': Reading manifest: Invalid extension permission: mozillaAddons
1583499730400	addons.webextension.screenshots@mozilla.org	WARN	Loading extension 'screenshots@mozilla.org': Reading manifest: Invalid extension permission: telemetry
1583499730401	addons.webextension.screenshots@mozilla.org	WARN	Loading extension 'screenshots@mozilla.org': Reading manifest: Invalid extension permission: resource://pdf.js/
1583499730401	addons.webextension.screenshots@mozilla.org	WARN	Loading extension 'screenshots@mozilla.org': Reading manifest: Invalid extension permission: about:reader*
1583499731659	Marionette	INFO	Listening on port 55744
1583499731696	Marionette	WARN	TLS certificate errors will be ignored for this session
JavaScript warning: https://trans-pp2.staticcache.org/ob/static_versioned/api/sportsbook/latest/js/minified/OB_SportBook_API_PMT.js?v=2, line 1337: unreachable code after return statement
JavaScript warning: https://trans-pp2.staticcache.org/ob/static_versioned/api/sportsbook/latest/js/minified/OB_SportBook_API_PMT.js?v=2, line 1337: unreachable code after return statement
JavaScript error: https://sports-pp2.staticcache.org/myaccount_2.10.0-fix.1/header/sbheader.min.js, line 4: TypeError: a is undefined
JavaScript error: , line 0: uncaught exception: Object
1583500646733	mozrunner::runner	INFO	Running command: "/Applications/Firefox.app/Contents/MacOS/firefox-bin" "-marionette" "-headless" "-foreground" "-no-remote" "-profile" "/var/folders/g6/4zc9__bn60q112znjr2lp88dwrlxj5/T/rust_mozprofileoTPrcR"
*** You are running in headless mode.
1583500647111	addons.webextension.doh-rollout@mozilla.org	WARN	Loading extension 'doh-rollout@mozilla.org': Reading manifest: Invalid extension permission: networkStatus
1583500647350	addons.webextension.screenshots@mozilla.org	WARN	Loading extension 'screenshots@mozilla.org': Reading manifest: Invalid extension permission: mozillaAddons
1583500647350	addons.webextension.screenshots@mozilla.org	WARN	Loading extension 'screenshots@mozilla.org': Reading manifest: Invalid extension permission: telemetry
1583500647350	addons.webextension.screenshots@mozilla.org	WARN	Loading extension 'screenshots@mozilla.org': Reading manifest: Invalid extension permission: resource://pdf.js/
1583500647350	addons.webextension.screenshots@mozilla.org	WARN	Loading extension 'screenshots@mozilla.org': Reading manifest: Invalid extension permission: about:reader*
1583500648718	Marionette	INFO	Listening on port 56146
1583500648793	Marionette	WARN	TLS certificate errors will be ignored for this session
JavaScript warning: https://trans-pp2.staticcache.org/ob/static_versioned/api/sportsbook/latest/js/minified/OB_SportBook_API_PMT.js?v=2, line 1337: unreachable code after return statement
JavaScript warning: https://trans-pp2.staticcache.org/ob/static_versioned/api/sportsbook/latest/js/minified/OB_SportBook_API_PMT.js?v=2, line 1337: unreachable code after return statement
JavaScript error: https://sports-pp2.staticcache.org/myaccount_2.10.0-fix.1/header/sbheader.min.js, line 4: TypeError: a is undefined
JavaScript error: , line 0: uncaught exception: Object
1583502108728	mozrunner::runner	INFO	Running command: "/Applications/Firefox.app/Contents/MacOS/firefox-bin" "-marionette" "-headless" "-foreground" "-no-remote" "-profile" "/var/folders/g6/4zc9__bn60q112znjr2lp88dwrlxj5/T/rust_mozprofileDBI286"
*** You are running in headless mode.
1583502109020	addons.webextension.doh-rollout@mozilla.org	WARN	Loading extension 'doh-rollout@mozilla.org': Reading manifest: Invalid extension permission: networkStatus
1583502109241	addons.webextension.screenshots@mozilla.org	WARN	Loading extension 'screenshots@mozilla.org': Reading manifest: Invalid extension permission: mozillaAddons
1583502109241	addons.webextension.screenshots@mozilla.org	WARN	Loading extension 'screenshots@mozilla.org': Reading manifest: Invalid extension permission: telemetry
1583502109241	addons.webextension.screenshots@mozilla.org	WARN	Loading extension 'screenshots@mozilla.org': Reading manifest: Invalid extension permission: resource://pdf.js/
1583502109241	addons.webextension.screenshots@mozilla.org	WARN	Loading extension 'screenshots@mozilla.org': Reading manifest: Invalid extension permission: about:reader*
1583502110576	Marionette	INFO	Listening on port 56939
1583502110677	Marionette	WARN	TLS certificate errors will be ignored for this session
JavaScript warning: https://trans-pp2.staticcache.org/ob/static_versioned/api/sportsbook/latest/js/minified/OB_SportBook_API_PMT.js?v=2, line 1337: unreachable code after return statement
JavaScript warning: https://trans-pp2.staticcache.org/ob/static_versioned/api/sportsbook/latest/js/minified/OB_SportBook_API_PMT.js?v=2, line 1337: unreachable code after return statement
JavaScript error: https://sports-pp2.staticcache.org/myaccount_2.10.0-fix.1/header/sbheader.min.js, line 4: TypeError: a is undefined
JavaScript error: , line 0: uncaught exception: Object
1583502394752	mozrunner::runner	INFO	Running command: "/Applications/Firefox.app/Contents/MacOS/firefox-bin" "-marionette" "-headless" "-foreground" "-no-remote" "-profile" "/var/folders/g6/4zc9__bn60q112znjr2lp88dwrlxj5/T/rust_mozprofileIOCSQl"
*** You are running in headless mode.
1583502395130	addons.webextension.doh-rollout@mozilla.org	WARN	Loading extension 'doh-rollout@mozilla.org': Reading manifest: Invalid extension permission: networkStatus
1583502395375	addons.webextension.screenshots@mozilla.org	WARN	Loading extension 'screenshots@mozilla.org': Reading manifest: Invalid extension permission: mozillaAddons
1583502395375	addons.webextension.screenshots@mozilla.org	WARN	Loading extension 'screenshots@mozilla.org': Reading manifest: Invalid extension permission: telemetry
1583502395375	addons.webextension.screenshots@mozilla.org	WARN	Loading extension 'screenshots@mozilla.org': Reading manifest: Invalid extension permission: resource://pdf.js/
1583502395375	addons.webextension.screenshots@mozilla.org	WARN	Loading extension 'screenshots@mozilla.org': Reading manifest: Invalid extension permission: about:reader*
1583502396836	Marionette	INFO	Listening on port 57511
1583502396913	Marionette	WARN	TLS certificate errors will be ignored for this session
JavaScript warning: https://trans-pp2.staticcache.org/ob/static_versioned/api/sportsbook/latest/js/minified/OB_SportBook_API_PMT.js?v=2, line 1337: unreachable code after return statement
JavaScript warning: https://trans-pp2.staticcache.org/ob/static_versioned/api/sportsbook/latest/js/minified/OB_SportBook_API_PMT.js?v=2, line 1337: unreachable code after return statement
JavaScript error: , line 0: uncaught exception: Received message from non whitelisted origin: https://sports.williamhill-pp2.com
JavaScript error: https://sports-pp2.staticcache.org/myaccount_2.10.0-fix.1/header/sbheader.min.js, line 4: TypeError: a is undefined
[GFX1-]: Receive IPC close with reason=AbnormalShutdown
[GFX1-]: Receive IPC close with reason=AbnormalShutdown
Exiting due to channel error.
Exiting due to channel error.
Exiting due to channel error.
Exiting due to channel error.
[GFX1-]: Receive IPC close with reason=AbnormalShutdown
[GFX1-]: Receive IPC close with reason=AbnormalShutdown
[GFX1-]: Receive IPC close with reason=AbnormalShutdown
[GFX1-]: Receive IPC close with reason=AbnormalShutdown
Exiting due to channel error.
[GFX1-]: Receive IPC close with reason=AbnormalShutdown
Exiting due to channel error.
Exiting due to channel error.
Exiting due to channel error.
Exiting due to channel error.
Exiting due to channel error.
[GFX1-]: Receive IPC close with reason=AbnormalShutdown
[GFX1-]: Receive IPC close with reason=AbnormalShutdown
Exiting due to channel error.
Exiting due to channel error.
[GFX1-]: Receive IPC close with reason=AbnormalShutdown
Exiting due to channel error.
Exiting due to channel error.
[GFX1-]: Receive IPC close with reason=AbnormalShutdown
Exiting due to channel error.
